Read CSV duplicate — sample_read • tester
…
A tibble

    Examples

csv = system.file("extdata", "sample_data.csv", package = "tester")
sample_read(csv)
#> Rows: 100 Columns: 2
#> ── Column specification ────────────────────────────────────────────────────────
#> Delimiter: ","
#> dbl (2): x, y
#> 
#> ℹ Use `spec()` to retrieve the full column specification for this data.
#> ℹ Specify the column types or set `show_col_types = FALSE` to quiet this message.
#> # A tibble: 100 × 2
#>          x       y
#>      <dbl>   <dbl>
#>  1 -0.502  -0.0807
#>  2  0.132   1.38  
#>  3 -0.0789 -0.463 
#>  4  0.887   1.63  
#>  5  0.117  -1.44  
#>  6  0.319  -0.299 
#>  7 -0.582  -0.438 
#>  8  0.715   0.141 
#>  9 -0.825   1.92  
#> 10 -0.360   0.0221
#> # ℹ 90 more rows
…
